aprendeR
…
El primer argumento de la función es un data.frame

Los argumentos subsecuentes indican qué es lo que se debe hacer a ese data.frame

Siempre regresa un data.frame

A continuación, se ejemplifica el uso de los distintos verbos de la tabla 5.2. Para esto, utilizaremos los siguientes conjuntos de datos de muestra, todos disponibles en el paquete nycflights13 (H. Wickham 2016a). Se leerán desde archivo de texto plano para ejemplificar algunos elementos de la limpieza.

Nota como utilizamos la función del paquete readr read_csv. Esta es una nueva implementación de read.csv pero mucho mas rápida.

flights <- read_csv("data/flights.csv")
flights

## # A tibble: 227,496 x 14
##    date                 hour minute   dep   arr dep_delay arr_delay carrier
##    <dttm>              <int>  <int> <int> <int>     <int>     <int> <chr>  
##  1 2011-01-01 12:00:00    14      0  1400  1500         0       -10 AA     
##  2 2011-01-02 12:00:00    14      1  1401  1501         1        -9 AA     
##  3 2011-01-03 12:00:00    13     52  1352  1502        -8        -8 AA     
##  4 2011-01-04 12:00:00    14      3  1403  1513         3         3 AA     
##  5 2011-01-05 12:00:00    14      5  1405  1507         5        -3 AA     
##  6 2011-01-06 12:00:00    13     59  1359  1503        -1        -7 AA     
##  7 2011-01-07 12:00:00    13     59  1359  1509        -1        -1 AA     
##  8 2011-01-08 12:00:00    13     55  1355  1454        -5       -16 AA     
##  9 2011-01-09 12:00:00    14     43  1443  1554        43        44 AA     
## 10 2011-01-10 12:00:00    14     43  1443  1553        43        43 AA     
## # ... with 227,486 more rows, and 6 more variables: flight <int>,
## #   dest <chr>, plane <chr>, cancelled <int>, time <int>, dist <int>

planes <- read_csv("data/planes.csv")
planes

## # A tibble: 2,853 x 9
##    plane   year mfr       model   no.eng no.seats speed engine  type      
##    <chr>  <int> <chr>     <chr>    <int>    <int> <int> <chr>   <chr>     
##  1 N576AA  1991 MCDONNEL… DC-9-8…      2      172    NA Turbo-… Fixed win…
##  2 N557AA  1993 MARZ BAR… KITFOX…      1        2    NA Recipr… Fixed win…
##  3 N403AA  1974 RAVEN     S55A        NA        1    60 None    Balloon   
##  4 N492AA  1989 MCDONNEL… DC-9-8…      2      172    NA Turbo-… Fixed win…
##  5 N262AA  1985 MCDONNEL… DC-9-8…      2      172    NA Turbo-… Fixed win…
##  6 N493AA  1989 MCDONNEL… DC-9-8…      2      172    NA Turbo-… Fixed win…
##  7 N477AA  1988 MCDONNEL… DC-9-8…      2      172    NA Turbo-… Fixed win…
##  8 N476AA  1988 MCDONNEL… DC-9-8…      2      172    NA Turbo-… Fixed win…
##  9 N504AA    NA AUTHIER … TIERRA…      1        2    NA Recipr… Fixed win…
## 10 N565AA  1987 MCDONNEL… DC-9-8…      2      172    NA Turbo-… Fixed win…
## # ... with 2,843 more rows

airports <- read_csv("data/airports.csv")
airports

## # A tibble: 3,376 x 7
##    iata  airport              city             state country   lat   long
##    <chr> <chr>                <chr>            <chr> <chr>   <dbl>  <dbl>
##  1 00M   Thigpen              Bay Springs      MS    USA      32.0  -89.2
##  2 00R   Livingston Municipal Livingston       TX    USA      30.7  -95.0
##  3 00V   Meadow Lake          Colorado Springs CO    USA      38.9 -105. 
##  4 01G   Perry-Warsaw         Perry            NY    USA      42.7  -78.1
##  5 01J   Hilliard Airpark     Hilliard         FL    USA      30.7  -81.9
##  6 01M   Tishomingo County    Belmont          MS    USA      34.5  -88.2
##  7 02A   Gragg-Wade           Clanton          AL    USA      32.9  -86.6
##  8 02C   Capitol              Brookfield       WI    USA      43.1  -88.2
##  9 02G   Columbiana County    East Liverpool   OH    USA      40.7  -80.6
## 10 03D   Memphis Memorial     Memphis          MO    USA      40.4  -92.2
## # ... with 3,366 more rows

5.2.2 Extracción de subconjuntos de observaciones

5.2.2.1 filter

Ya habíamos visto muchas maneras de extraer datos específicos de una base de datos de acuerdo a condiciones lógicas impuestas en los valores de las filas de columnas especificas. filter nos permite poner tantas condiciones como queramos de manera muy fácil y entendible por cualquiera que lea nuestro código.

Busquemos, por ejemplo, todos los vuelos hacia SFO u OAK

filter(flights, dest == "SFO" | dest == "OAK")

## # A tibble: 3,508 x 14
##    date                 hour minute   dep   arr dep_delay arr_delay carrier
##    <dttm>              <int>  <int> <int> <int>     <int>     <int> <chr>  
##  1 2011-01-31 12:00:00     8     51   851  1052         1       -27 CO     
##  2 2011-01-31 12:00:00    11     29  1129  1351         4         1 CO     
##  3 2011-01-31 12:00:00    14     32  1432  1656         7         5 CO     
##  4 2011-01-31 12:00:00    17     48  1748  2001         3        -4 CO     
##  5 2011-01-31 12:00:00    21     43  2143  2338        50        24 CO     
##  6 2011-01-31 12:00:00     7     29   729  1002        -1         2 CO     
##  7 2011-01-31 12:00:00    15     58  1558  1812        -2        -8 CO     
##  8 2011-01-30 12:00:00     9     35   935  1203        45        49 CO     
##  9 2011-01-30 12:00:00    11     43  1143  1359        18        14 CO     
## 10 2011-01-30 12:00:00    14     59  1459  1715        34        24 CO     
## # ... with 3,498 more rows, and 6 more variables: flight <int>,
## #   dest <chr>, plane <chr>, cancelled <int>, time <int>, dist <int>

Los vuelos con retraso mayor a 5 horas

filter(flights, arr_delay > 5)

## # A tibble: 77,848 x 14
##    date                 hour minute   dep   arr dep_delay arr_delay carrier
##    <dttm>              <int>  <int> <int> <int>     <int>     <int> <chr>  
##  1 2011-01-09 12:00:00    14     43  1443  1554        43        44 AA     
##  2 2011-01-10 12:00:00    14     43  1443  1553        43        43 AA     
##  3 2011-01-11 12:00:00    14     29  1429  1539        29        29 AA     
##  4 2011-01-17 12:00:00    15     30  1530  1634        90        84 AA     
##  5 2011-01-20 12:00:00    15      7  1507  1622        67        72 AA     
##  6 2011-01-31 12:00:00    14     41  1441  1553        41        43 AA     
##  7 2011-01-13 12:00:00     7     22   722   841         2         6 AA     
##  8 2011-01-16 12:00:00     7     43   743   843        23         8 AA     
##  9 2011-01-17 12:00:00     7     24   724   842         4         7 AA     
## 10 2011-01-24 12:00:00     7     31   731   904        11        29 AA     
## # ... with 77,838 more rows, and 6 more variables: flight <int>,
## #   dest <chr>, plane <chr>, cancelled <int>, time <int>, dist <int>

Podemos juntar las preguntas: vuelos con retraso mayor a 5 horas con destino a SFO o OAK

filter(flights, dest == "SFO" | dest == "OAK", arr_delay > 5)

## # A tibble: 1,581 x 14
##    date                 hour minute   dep   arr dep_delay arr_delay carrier
##    <dttm>              <int>  <int> <int> <int>     <int>     <int> <chr>  
##  1 2011-01-31 12:00:00    21     43  2143  2338        50        24 CO     
##  2 2011-01-30 12:00:00     9     35   935  1203        45        49 CO     
##  3 2011-01-30 12:00:00    11     43  1143  1359        18        14 CO     
##  4 2011-01-30 12:00:00    14     59  1459  1715        34        24 CO     
##  5 2011-01-30 12:00:00    17     49  1749  2011         4         6 CO     
##  6 2011-01-30 12:00:00    19     31  1931  2159        41        41 CO     
##  7 2011-01-30 12:00:00    21      0  2100  2320        10         9 CO     
##  8 2011-01-29 12:00:00     8     52   852  1126         2        12 CO     
##  9 2011-01-29 12:00:00    14     42  1442  1655        17         9 CO     
## 10 2011-01-29 12:00:00    18      9  1809  2021        14        11 CO     
## # ... with 1,571 more rows, and 6 more variables: flight <int>,
## #   dest <chr>, plane <chr>, cancelled <int>, time <int>, dist <int>
…
# Extraemos el 1% de los datos de flights
sample_frac(flights, size = 0.01)

## # A tibble: 2,275 x 14
##    date                 hour minute   dep   arr dep_delay arr_delay carrier
##    <dttm>              <int>  <int> <int> <int>     <int>     <int> <chr>  
##  1 2011-03-21 12:00:00    13     21  1321  1635         6         0 CO     
##  2 2011-06-17 12:00:00    21      2  2102  2151         2        11 CO     
##  3 2011-07-12 12:00:00    10     17  1017  1448         2         1 CO     
##  4 2011-08-08 12:00:00    10     55  1055  1422         0        -3 WN     
##  5 2011-09-13 12:00:00    19      1  1901  2314        -4        -5 CO     
##  6 2011-03-06 12:00:00    18     32  1832  2044        -3       -11 CO     
##  7 2011-05-09 12:00:00     6     53   653   843        18       -15 OO     
##  8 2011-10-06 12:00:00    15     33  1533  1628         3        -7 WN     
##  9 2011-06-17 12:00:00    13     50  1350  1545         0         2 OO     
## 10 2011-11-01 12:00:00    14     30  1430  1601         5         1 CO     
## # ... with 2,265 more rows, and 6 more variables: flight <int>,
## #   dest <chr>, plane <chr>, cancelled <int>, time <int>, dist <int>
…
5.2.3 Extracción de subconjuntos de variables (select)

Podemos ahora, mas fácilmente, quedarnos con únicamente ciertas variables. select esta implementado de tal manera que funciona nombrando las variables que se quieren utilizar.

select(flights, flight, dest)

## # A tibble: 227,496 x 2
##    flight dest 
##     <int> <chr>
##  1    428 DFW  
##  2    428 DFW  
##  3    428 DFW  
##  4    428 DFW  
##  5    428 DFW  
##  6    428 DFW  
##  7    428 DFW  
##  8    428 DFW  
##  9    428 DFW  
## 10    428 DFW  
## # ... with 227,486 more rows

También podemos especificar que queremos todas las variables menos algunas.

select(flights, -date, -hour, -minute, -dep, -arr, -carrier, -flight)

## # A tibble: 227,496 x 7
##    dep_delay arr_delay dest  plane  cancelled  time  dist
##        <int>     <int> <chr> <chr>      <int> <int> <int>
##  1         0       -10 DFW   N576AA         0    40   224
##  2         1        -9 DFW   N557AA         0    45   224
##  3        -8        -8 DFW   N541AA         0    48   224
##  4         3         3 DFW   N403AA         0    39   224
##  5         5        -3 DFW   N492AA         0    44   224
##  6        -1        -7 DFW   N262AA         0    45   224
##  7        -1        -1 DFW   N493AA         0    43   224
##  8        -5       -16 DFW   N477AA         0    40   224
##  9        43        44 DFW   N476AA         0    41   224
## 10        43        43 DFW   N504AA         0    45   224
## # ... with 227,486 more rows

Podemos pedir las variables que empiezan con algún caracter.

select(flights, starts_with("d"))

## # A tibble: 227,496 x 5
##    date                  dep dep_delay dest   dist
##    <dttm>              <int>     <int> <chr> <int>
##  1 2011-01-01 12:00:00  1400         0 DFW     224
##  2 2011-01-02 12:00:00  1401         1 DFW     224
##  3 2011-01-03 12:00:00  1352        -8 DFW     224
##  4 2011-01-04 12:00:00  1403         3 DFW     224
##  5 2011-01-05 12:00:00  1405         5 DFW     224
##  6 2011-01-06 12:00:00  1359        -1 DFW     224
##  7 2011-01-07 12:00:00  1359        -1 DFW     224
##  8 2011-01-08 12:00:00  1355        -5 DFW     224
##  9 2011-01-09 12:00:00  1443        43 DFW     224
## 10 2011-01-10 12:00:00  1443        43 DFW     224
## # ... with 227,486 more rows

O las que contienen algún patrón

select(flights, contains("dep"))

## # A tibble: 227,496 x 2
##      dep dep_delay
##    <int>     <int>
##  1  1400         0
##  2  1401         1
##  3  1352        -8
##  4  1403         3
##  5  1405         5
##  6  1359        -1
##  7  1359        -1
##  8  1355        -5
##  9  1443        43
## 10  1443        43
## # ... with 227,486 more rows
…
5.2.5 Creación de nuevas variables

5.2.5.1 mutate y transmute

Muchas veces lo que se desea es generar nuevas variables utilizando funciones sobre las variables de la tabla.

Por ejemplo, queremos saber cual fue el vuelo mas rápido. Para esto queremos calcular la velocidad promedio del vuelo.

select(arrange(mutate(flights, velocidad = dist/time), desc(velocidad)),
       flight, dest, velocidad)

## # A tibble: 227,496 x 3
##    flight dest  velocidad
##     <int> <chr>     <dbl>
##  1   1646 AUS        12.7
##  2   5229 MEM        11.2
##  3    944 CLT        10.7
##  4   4634 HOB        10.7
##  5    500 IND        10.3
##  6    106 EWR        10.1
##  7    644 CLE        10.1
##  8   1074 CLE        10.1
##  9   1054 EWR        10.1
## 10   1424 DCA        10.1
## # ... with 227,486 more rows

Esta manera de transformar a los datos (utilizando varios de los verbos) es confusa y difícil de leer. Es más sencillo utilizar el operador pipe11 de R implementado en el paquete magrittr, es decir, %>% (Bache and Wickham 2014).

flights2 <- mutate(flights, velocidad = dist/time) %>%
              arrange(., desc(velocidad)) %>%
              select(., flight, dest, velocidad)
flights2

## # A tibble: 227,496 x 3
##    flight dest  velocidad
##     <int> <chr>     <dbl>
##  1   1646 AUS        12.7
##  2   5229 MEM        11.2
##  3    944 CLT        10.7
##  4   4634 HOB        10.7
##  5    500 IND        10.3
##  6    106 EWR        10.1
##  7    644 CLE        10.1
##  8   1074 CLE        10.1
##  9   1054 EWR        10.1
## 10   1424 DCA        10.1
## # ... with 227,486 more rows
…
Agrego la columna de velocidad a la base de datos de flights, luego (operador pipe)

Ordeno los vuelos en forma descendiente según su velocidad, luego

Selecciono las variables de vuelo, destino y velocidad.

Que el código sea entendible no es importante únicamente en el contexto del trabajo colaborativo pues muchas veces los lectores de su código serán ustedes en el futuro.

transmute es muy similar a mutate pero elimina las variables que no fueron creadas por la función.

dplyr::transmute(flights, velocidad = dist/time) %>%
              arrange(., desc(velocidad)) 

## # A tibble: 227,496 x 1
##    velocidad
##        <dbl>
##  1      12.7
##  2      11.2
##  3      10.7
##  4      10.7
##  5      10.3
##  6      10.1
##  7      10.1
##  8      10.1
##  9      10.1
## 10      10.1
## # ... with 227,486 more rows
…
# base de aviones con velocidad

vel_aviones <- flights %>% 
  group_by(plane) %>%
  dplyr::summarise(vel_prom = mean(dist/time, na.rm = T))
  
inner_join(
  planes,
  vel_aviones
)  %>%
  select(plane, year, vel_prom) %>%
  arrange(desc(vel_prom))

## # A tibble: 2,853 x 3
##    plane   year vel_prom
##    <chr>  <int>    <dbl>
##  1 N653JB  2007     9.33
##  2 N709UW  1999     9.32
##  3 N3744F  2001     9.07
##  4 N3769L  2002     9.07
##  5 N623JB  2005     9.04
##  6 N607JB  2005     8.94
##  7 N580JB  2003     8.87
##  8 N658JB  2007     8.87
##  9 N589JB  2004     8.81
## 10 N760JB  2008     8.79
## # ... with 2,843 more rows

Ahora, queremos saber los destinos con mayores retrasos.

destinos <- flights %>% 
  group_by(dest) %>%
  dplyr::summarise(retraso = mean(arr_delay, na.rm = T))

inner_join(
  airports, 
  destinos,
  by = c("iata" = "dest")
) %>%
  arrange(desc(retraso))

## # A tibble: 114 x 8
##    iata  airport             city       state country   lat   long retraso
##    <chr> <chr>               <chr>      <chr> <chr>   <dbl>  <dbl>   <dbl>
##  1 ANC   Ted Stevens Anchor… Anchorage  AK    USA      61.2 -150.     26.1
##  2 CID   Eastern Iowa        Cedar Rap… IA    USA      41.9  -91.7    17.8
##  3 DSM   Des Moines Interna… Des Moines IA    USA      41.5  -93.7    16.0
##  4 SFO   San Francisco Inte… San Franc… CA    USA      37.6 -122.     14.9
##  5 BPT   Southeast Texas Re… Beaumont/… TX    USA      30.0  -94.0    14.3
##  6 GRR   Kent County Intern… Grand Rap… MI    USA      42.9  -85.5    13.7
##  7 DAY   James M Cox Dayton… Dayton     OH    USA      39.9  -84.2    13.7
##  8 VPS   Eglin Air Force Ba… Valparaiso FL    USA      30.5  -86.5    12.5
##  9 SAV   Savannah Internati… Savannah   GA    USA      32.1  -81.2    12.3
## 10 RIC   Richmond Internati… Richmond   VA    USA      37.5  -77.3    12.3
## # ... with 104 more rows

5.2.7 Agrupar datos

5.2.7.1 group_by

Un verbo muy poderoso es el group_by. Es por este tipo de verbos que resultó necesario generar un objeto diferente al tradicional dataframe. Básicamente, el tbl_df es capaz de guardar agrupamientos específicos sobre los cuáles puede hacer funciones ventana (window functions) o resúmenes sobre los grupos que se definen.

5.2.7.1.1 Ejemplo

Los datos de vuelos se agrupan naturalmente sobre las aerolíneas.

flights.g <- flights %>% group_by(., carrier)
flights.g

## # A tibble: 227,496 x 15
## # Groups:   carrier [15]
##    date                 hour minute   dep   arr dep_delay arr_delay carrier
##    <dttm>              <int>  <int> <int> <int>     <int>     <int> <chr>  
##  1 2011-01-01 12:00:00    14      0  1400  1500         0       -10 AA     
##  2 2011-01-02 12:00:00    14      1  1401  1501         1        -9 AA     
##  3 2011-01-03 12:00:00    13     52  1352  1502        -8        -8 AA     
##  4 2011-01-04 12:00:00    14      3  1403  1513         3         3 AA     
##  5 2011-01-05 12:00:00    14      5  1405  1507         5        -3 AA     
##  6 2011-01-06 12:00:00    13     59  1359  1503        -1        -7 AA     
##  7 2011-01-07 12:00:00    13     59  1359  1509        -1        -1 AA     
##  8 2011-01-08 12:00:00    13     55  1355  1454        -5       -16 AA     
##  9 2011-01-09 12:00:00    14     43  1443  1554        43        44 AA     
## 10 2011-01-10 12:00:00    14     43  1443  1553        43        43 AA     
## # ... with 227,486 more rows, and 7 more variables: flight <int>,
## #   dest <chr>, plane <chr>, cancelled <int>, time <int>, dist <int>,
## #   velocidad <dbl>
…
Podemos arreglar primero por destino y luego por retraso de llegada.

arrange(flights, dest, arr_delay)

## # A tibble: 227,496 x 15
##    date                 hour minute   dep   arr dep_delay arr_delay carrier
##    <dttm>              <int>  <int> <int> <int>     <int>     <int> <chr>  
##  1 2011-11-25 12:00:00    12     55  1255  1344         0       -26 WN     
##  2 2011-01-12 12:00:00     8     56   856  1000       -14       -25 OO     
##  3 2011-12-25 12:00:00    19     50  1950  2045        -5       -25 WN     
##  4 2011-03-16 12:00:00    17     39  1739  1841        -8       -24 OO     
##  5 2011-03-17 12:00:00    11     17  1117  1214        -3       -24 XE     
##  6 2011-12-30 12:00:00    17     27  1727  1828        -3       -24 OO     
##  7 2011-01-29 12:00:00    17     32  1732  1837        -3       -23 CO     
##  8 2011-05-29 12:00:00    18     11  1811  1902        -4       -23 WN     
##  9 2011-02-13 12:00:00    17     34  1734  1843        -1       -22 CO     
## 10 2011-04-17 12:00:00    17     18  1718  1818        -7       -22 WN     
## # ... with 227,486 more rows, and 7 more variables: flight <int>,
## #   dest <chr>, plane <chr>, cancelled <int>, time <int>, dist <int>,
## #   velocidad <dbl>
…
