aprendeR
…
posiciones <- billboard_tidy %>%
  left_join(canciones, c("artist.inverted", "track", "year", "time")) %>%
  select(song_id, date, week, rank) %>%
  arrange(song_id, date) %>%
  tbl_df
posiciones

## # A tibble: 5,307 x 4
##    song_id date        week rank 
##      <int> <date>     <dbl> <chr>
##  1       1 2000-09-02     1 91   
##  2       1 2000-09-09     2 87   
##  3       1 2000-09-16     3 92   
##  4       2 2000-02-26     1 87   
##  5       2 2000-03-04     2 82   
##  6       2 2000-03-11     3 72   
##  7       2 2000-03-18     4 77   
##  8       2 2000-03-25     5 87   
##  9       2 2000-04-01     6 94   
## 10       2 2000-04-08     7 99   
## # ... with 5,297 more rows
…
all

## # A tibble: 1,122 x 5
##    entidad             estado indicador           anio  valor
##    <chr>               <chr>  <chr>               <chr> <dbl>
##  1 Total nacional      00     pago_pensiones_imss 2000   41.2
##  2 Aguascalientes      01     pago_pensiones_imss 2000   41.5
##  3 Baja California     02     pago_pensiones_imss 2000   38.9
##  4 Baja California Sur 03     pago_pensiones_imss 2000   28.2
##  5 Campeche            04     pago_pensiones_imss 2000   37.5
##  6 Coahuila            05     pago_pensiones_imss 2000   46.5
##  7 Colima              06     pago_pensiones_imss 2000   37.9
##  8 Chiapas             07     pago_pensiones_imss 2000   34.9
##  9 Chihuahua           08     pago_pensiones_imss 2000   39.2
## 10 Ciudad de México    09     pago_pensiones_imss 2000   35.8
## # ... with 1,112 more rows
…
